-- Merging decision tree log ---
manifest
ADDED from C:\Users\Beep Montalban\AndroidStudioProjects\Quizma\app\src\main\AndroidManifest.xml:2:1-44:12
INJECTED from C:\Users\Beep Montalban\AndroidStudioProjects\Quizma\app\src\main\AndroidManifest.xml:2:1-44:12
INJECTED from C:\Users\Beep Montalban\AndroidStudioProjects\Quizma\app\src\main\AndroidManifest.xml:2:1-44:12
INJECTED from C:\Users\Beep Montalban\AndroidStudioProjects\Quizma\app\src\main\AndroidManifest.xml:2:1-44:12
MERGED from [com.android.support:design:28.0.0] C:\Users\Beep Montalban\.gradle\caches\transforms-1\files-1.1\design-28.0.0.aar\abda9a137db9062261ff731dc018e3d3\AndroidManifest.xml:17:1-24:12
MERGED from [com.android.support:appcompat-v7:28.0.0] C:\Users\Beep Montalban\.gradle\caches\transforms-1\files-1.1\appcompat-v7-28.0.0.aar\f48ca51120921539497697dddb99a025\AndroidManifest.xml:17:1-22:12
MERGED from [com.android.support.constraint:constraint-layout:1.1.3] C:\Users\Beep Montalban\.gradle\caches\transforms-1\files-1.1\constraint-layout-1.1.3.aar\677d239f3ad4191fe7cb20bb12642c95\AndroidManifest.xml:2:1-11:12
MERGED from [com.android.support:recyclerview-v7:28.0.0] C:\Users\Beep Montalban\.gradle\caches\transforms-1\files-1.1\recyclerview-v7-28.0.0.aar\abff18dde50adc13ecd89ebb23e808c6\AndroidManifest.xml:17:1-22:12
MERGED from [com.android.support:support-fragment:28.0.0] C:\Users\Beep Montalban\.gradle\caches\transforms-1\files-1.1\support-fragment-28.0.0.aar\c8eedad4481017c54206fe5a0c9a60e4\AndroidManifest.xml:17:1-22:12
MERGED from [com.android.support:animated-vector-drawable:28.0.0] C:\Users\Beep Montalban\.gradle\caches\transforms-1\files-1.1\animated-vector-drawable-28.0.0.aar\74b043f4b81017561883adf632710edf\AndroidManifest.xml:17:1-22:12
MERGED from [com.android.support:support-core-ui:28.0.0] C:\Users\Beep Montalban\.gradle\caches\transforms-1\files-1.1\support-core-ui-28.0.0.aar\3e11ea3365aa283a94a0c955bbd0f477\AndroidManifest.xml:17:1-22:12
MERGED from [com.android.support:support-core-utils:28.0.0] C:\Users\Beep Montalban\.gradle\caches\transforms-1\files-1.1\support-core-utils-28.0.0.aar\aa9e301bc417f88e04c26f623abc26c2\AndroidManifest.xml:17:1-22:12
MERGED from [com.android.support:support-vector-drawable:28.0.0] C:\Users\Beep Montalban\.gradle\caches\transforms-1\files-1.1\support-vector-drawable-28.0.0.aar\ce841b294bd3ff8ef150347031a51c9b\AndroidManifest.xml:17:1-22:12
MERGED from [com.android.support:transition:28.0.0] C:\Users\Beep Montalban\.gradle\caches\transforms-1\files-1.1\transition-28.0.0.aar\4d2446096fc802a97acbbcb4afb0480b\AndroidManifest.xml:17:1-22:12
MERGED from [com.android.support:loader:28.0.0] C:\Users\Beep Montalban\.gradle\caches\transforms-1\files-1.1\loader-28.0.0.aar\b5f1311aa5f90a1a146ca7ffdad1a7a6\AndroidManifest.xml:17:1-22:12
MERGED from [com.android.support:viewpager:28.0.0] C:\Users\Beep Montalban\.gradle\caches\transforms-1\files-1.1\viewpager-28.0.0.aar\613c3e08b86a93840de4395b800e3911\AndroidManifest.xml:17:1-22:12
MERGED from [com.android.support:coordinatorlayout:28.0.0] C:\Users\Beep Montalban\.gradle\caches\transforms-1\files-1.1\coordinatorlayout-28.0.0.aar\025e015f81e5e42868e23ef087bbf949\AndroidManifest.xml:17:1-22:12
MERGED from [com.android.support:drawerlayout:28.0.0] C:\Users\Beep Montalban\.gradle\caches\transforms-1\files-1.1\drawerlayout-28.0.0.aar\7515c3e5373efbd50a464336aaececc3\AndroidManifest.xml:17:1-22:12
MERGED from [com.android.support:slidingpanelayout:28.0.0] C:\Users\Beep Montalban\.gradle\caches\transforms-1\files-1.1\slidingpanelayout-28.0.0.aar\90639f9662cb7b3a2e54cab5269713a5\AndroidManifest.xml:17:1-22:12
MERGED from [com.android.support:customview:28.0.0] C:\Users\Beep Montalban\.gradle\caches\transforms-1\files-1.1\customview-28.0.0.aar\352c3d30de29fc6ef4cc6cc388332ab2\AndroidManifest.xml:17:1-22:12
MERGED from [com.android.support:swiperefreshlayout:28.0.0] C:\Users\Beep Montalban\.gradle\caches\transforms-1\files-1.1\swiperefreshlayout-28.0.0.aar\a253d5996ea136d58449592055ee04e9\AndroidManifest.xml:17:1-22:12
MERGED from [com.android.support:asynclayoutinflater:28.0.0] C:\Users\Beep Montalban\.gradle\caches\transforms-1\files-1.1\asynclayoutinflater-28.0.0.aar\3df21c603a81a85f20798e482881dd3a\AndroidManifest.xml:17:1-22:12
MERGED from [com.android.support:support-compat:28.0.0] C:\Users\Beep Montalban\.gradle\caches\transforms-1\files-1.1\support-compat-28.0.0.aar\5276ccc4e1bc65bf275107333f64b811\AndroidManifest.xml:17:1-24:12
MERGED from [com.android.support:versionedparcelable:28.0.0] C:\Users\Beep Montalban\.gradle\caches\transforms-1\files-1.1\versionedparcelable-28.0.0.aar\e29b2226c064cea130feaffa1122981c\AndroidManifest.xml:17:1-25:12
MERGED from [com.android.support:cursoradapter:28.0.0] C:\Users\Beep Montalban\.gradle\caches\transforms-1\files-1.1\cursoradapter-28.0.0.aar\fc313fd12de420bfa210e45e544199a5\AndroidManifest.xml:17:1-22:12
MERGED from [com.android.support:cardview-v7:28.0.0] C:\Users\Beep Montalban\.gradle\caches\transforms-1\files-1.1\cardview-v7-28.0.0.aar\d8e9677a8749133118b37e3535c95d2c\AndroidManifest.xml:17:1-22:12
MERGED from [android.arch.lifecycle:runtime:1.1.1] C:\Users\Beep Montalban\.gradle\caches\transforms-1\files-1.1\runtime-1.1.1.aar\d21c48cc76e2f01bde83a3896f0ec71b\AndroidManifest.xml:17:1-22:12
MERGED from [com.android.support:documentfile:28.0.0] C:\Users\Beep Montalban\.gradle\caches\transforms-1\files-1.1\documentfile-28.0.0.aar\502d896acdb47b6538e18298fae86a19\AndroidManifest.xml:17:1-22:12
MERGED from [com.android.support:localbroadcastmanager:28.0.0] C:\Users\Beep Montalban\.gradle\caches\transforms-1\files-1.1\localbroadcastmanager-28.0.0.aar\531fe6f0921640606ebde6346723bc7a\AndroidManifest.xml:17:1-22:12
MERGED from [com.android.support:print:28.0.0] C:\Users\Beep Montalban\.gradle\caches\transforms-1\files-1.1\print-28.0.0.aar\8647150b9068d103da97d0955dd7f07e\AndroidManifest.xml:17:1-22:12
MERGED from [android.arch.lifecycle:viewmodel:1.1.1] C:\Users\Beep Montalban\.gradle\caches\transforms-1\files-1.1\viewmodel-1.1.1.aar\e182609ffb590cf1154fd7099d628f1b\AndroidManifest.xml:17:1-22:12
MERGED from [com.android.support:interpolator:28.0.0] C:\Users\Beep Montalban\.gradle\caches\transforms-1\files-1.1\interpolator-28.0.0.aar\e8e0222386999e7650bf9abb0b67c115\AndroidManifest.xml:17:1-22:12
MERGED from [android.arch.lifecycle:livedata:1.1.1] C:\Users\Beep Montalban\.gradle\caches\transforms-1\files-1.1\livedata-1.1.1.aar\f3e72de4aa60074c50f33a2088839c8c\AndroidManifest.xml:17:1-22:12
MERGED from [android.arch.lifecycle:livedata-core:1.1.1] C:\Users\Beep Montalban\.gradle\caches\transforms-1\files-1.1\livedata-core-1.1.1.aar\52939d05af574c36adb0284008ea7a5b\AndroidManifest.xml:17:1-22:12
MERGED from [android.arch.core:runtime:1.1.1] C:\Users\Beep Montalban\.gradle\caches\transforms-1\files-1.1\runtime-1.1.1.aar\803bbe00005ed1338030802093eecc00\AndroidManifest.xml:17:1-22:12
INJECTED from C:\Users\Beep Montalban\AndroidStudioProjects\Quizma\app\src\main\AndroidManifest.xml:2:1-44:12
INJECTED from C:\Users\Beep Montalban\AndroidStudioProjects\Quizma\app\src\main\AndroidManifest.xml:2:1-44:12
INJECTED from C:\Users\Beep Montalban\AndroidStudioProjects\Quizma\app\src\main\AndroidManifest.xml:2:1-44:12
	package
		ADDED from C:\Users\Beep Montalban\AndroidStudioProjects\Quizma\app\src\main\AndroidManifest.xml:3:5-40
		INJECTED from C:\Users\Beep Montalban\AndroidStudioProjects\Quizma\app\src\main\AndroidManifest.xml
		INJECTED from C:\Users\Beep Montalban\AndroidStudioProjects\Quizma\app\src\main\AndroidManifest.xml
	android:versionName
		INJECTED from C:\Users\Beep Montalban\AndroidStudioProjects\Quizma\app\src\main\AndroidManifest.xml
		ADDED from C:\Users\Beep Montalban\AndroidStudioProjects\Quizma\app\src\main\AndroidManifest.xml:2:1-44:12
		INJECTED from C:\Users\Beep Montalban\AndroidStudioProjects\Quizma\app\src\main\AndroidManifest.xml
	android:versionCode
		INJECTED from C:\Users\Beep Montalban\AndroidStudioProjects\Quizma\app\src\main\AndroidManifest.xml
		ADDED from C:\Users\Beep Montalban\AndroidStudioProjects\Quizma\app\src\main\AndroidManifest.xml:2:1-44:12
		INJECTED from C:\Users\Beep Montalban\AndroidStudioProjects\Quizma\app\src\main\AndroidManifest.xml
	xmlns:android
		ADDED from C:\Users\Beep Montalban\AndroidStudioProjects\Quizma\app\src\main\AndroidManifest.xml:2:11-69
uses-permission#android.permission.INTERNET
ADDED from C:\Users\Beep Montalban\AndroidStudioProjects\Quizma\app\src\main\AndroidManifest.xml:5:5-67
	android:name
		ADDED from C:\Users\Beep Montalban\AndroidStudioProjects\Quizma\app\src\main\AndroidManifest.xml:5:22-64
uses-permission#android.permission.WRITE_EXTERNAL_STORAGE
ADDED from C:\Users\Beep Montalban\AndroidStudioProjects\Quizma\app\src\main\AndroidManifest.xml:6:5-81
	android:name
		ADDED from C:\Users\Beep Montalban\AndroidStudioProjects\Quizma\app\src\main\AndroidManifest.xml:6:22-78
uses-feature#android.hardware.camera
ADDED from C:\Users\Beep Montalban\AndroidStudioProjects\Quizma\app\src\main\AndroidManifest.xml:8:5-85
	android:required
		ADDED from C:\Users\Beep Montalban\AndroidStudioProjects\Quizma\app\src\main\AndroidManifest.xml:8:58-82
	android:name
		ADDED from C:\Users\Beep Montalban\AndroidStudioProjects\Quizma\app\src\main\AndroidManifest.xml:8:19-57
application
ADDED from C:\Users\Beep Montalban\AndroidStudioProjects\Quizma\app\src\main\AndroidManifest.xml:10:5-42:19
MERGED from [com.android.support:design:28.0.0] C:\Users\Beep Montalban\.gradle\caches\transforms-1\files-1.1\design-28.0.0.aar\abda9a137db9062261ff731dc018e3d3\AndroidManifest.xml:22:5-20
MERGED from [com.android.support:design:28.0.0] C:\Users\Beep Montalban\.gradle\caches\transforms-1\files-1.1\design-28.0.0.aar\abda9a137db9062261ff731dc018e3d3\AndroidManifest.xml:22:5-20
MERGED from [com.android.support.constraint:constraint-layout:1.1.3] C:\Users\Beep Montalban\.gradle\caches\transforms-1\files-1.1\constraint-layout-1.1.3.aar\677d239f3ad4191fe7cb20bb12642c95\AndroidManifest.xml:9:5-20
MERGED from [com.android.support.constraint:constraint-layout:1.1.3] C:\Users\Beep Montalban\.gradle\caches\transforms-1\files-1.1\constraint-layout-1.1.3.aar\677d239f3ad4191fe7cb20bb12642c95\AndroidManifest.xml:9:5-20
MERGED from [com.android.support:support-compat:28.0.0] C:\Users\Beep Montalban\.gradle\caches\transforms-1\files-1.1\support-compat-28.0.0.aar\5276ccc4e1bc65bf275107333f64b811\AndroidManifest.xml:22:5-94
MERGED from [com.android.support:support-compat:28.0.0] C:\Users\Beep Montalban\.gradle\caches\transforms-1\files-1.1\support-compat-28.0.0.aar\5276ccc4e1bc65bf275107333f64b811\AndroidManifest.xml:22:5-94
MERGED from [com.android.support:versionedparcelable:28.0.0] C:\Users\Beep Montalban\.gradle\caches\transforms-1\files-1.1\versionedparcelable-28.0.0.aar\e29b2226c064cea130feaffa1122981c\AndroidManifest.xml:22:5-23:19
MERGED from [com.android.support:versionedparcelable:28.0.0] C:\Users\Beep Montalban\.gradle\caches\transforms-1\files-1.1\versionedparcelable-28.0.0.aar\e29b2226c064cea130feaffa1122981c\AndroidManifest.xml:22:5-23:19
	android:appComponentFactory
		ADDED from [com.android.support:support-compat:28.0.0] C:\Users\Beep Montalban\.gradle\caches\transforms-1\files-1.1\support-compat-28.0.0.aar\5276ccc4e1bc65bf275107333f64b811\AndroidManifest.xml:22:18-91
	android:supportsRtl
		ADDED from C:\Users\Beep Montalban\AndroidStudioProjects\Quizma\app\src\main\AndroidManifest.xml:15:9-35
	android:label
		ADDED from C:\Users\Beep Montalban\AndroidStudioProjects\Quizma\app\src\main\AndroidManifest.xml:13:9-41
	android:roundIcon
		ADDED from C:\Users\Beep Montalban\AndroidStudioProjects\Quizma\app\src\main\AndroidManifest.xml:14:9-54
	android:icon
		ADDED from C:\Users\Beep Montalban\AndroidStudioProjects\Quizma\app\src\main\AndroidManifest.xml:12:9-43
	android:allowBackup
		ADDED from C:\Users\Beep Montalban\AndroidStudioProjects\Quizma\app\src\main\AndroidManifest.xml:11:9-35
	android:theme
		ADDED from C:\Users\Beep Montalban\AndroidStudioProjects\Quizma\app\src\main\AndroidManifest.xml:16:9-40
activity#com.example.ismael.quizma.SplashScreenActivity
ADDED from C:\Users\Beep Montalban\AndroidStudioProjects\Quizma\app\src\main\AndroidManifest.xml:17:9-25:20
	android:theme
		ADDED from C:\Users\Beep Montalban\AndroidStudioProjects\Quizma\app\src\main\AndroidManifest.xml:19:13-69
	android:name
		ADDED from C:\Users\Beep Montalban\AndroidStudioProjects\Quizma\app\src\main\AndroidManifest.xml:18:13-49
intent-filter#action:name:android.intent.action.MAIN+category:name:android.intent.category.LAUNCHER
ADDED from C:\Users\Beep Montalban\AndroidStudioProjects\Quizma\app\src\main\AndroidManifest.xml:20:13-24:29
action#android.intent.action.MAIN
ADDED from C:\Users\Beep Montalban\AndroidStudioProjects\Quizma\app\src\main\AndroidManifest.xml:21:17-69
	android:name
		ADDED from C:\Users\Beep Montalban\AndroidStudioProjects\Quizma\app\src\main\AndroidManifest.xml:21:25-66
category#android.intent.category.LAUNCHER
ADDED from C:\Users\Beep Montalban\AndroidStudioProjects\Quizma\app\src\main\AndroidManifest.xml:23:17-77
	android:name
		ADDED from C:\Users\Beep Montalban\AndroidStudioProjects\Quizma\app\src\main\AndroidManifest.xml:23:27-74
activity#com.example.ismael.quizma.ResumenActivity
ADDED from C:\Users\Beep Montalban\AndroidStudioProjects\Quizma\app\src\main\AndroidManifest.xml:26:9-29:59
	android:label
		ADDED from C:\Users\Beep Montalban\AndroidStudioProjects\Quizma\app\src\main\AndroidManifest.xml:28:13-59
	android:theme
		ADDED from C:\Users\Beep Montalban\AndroidStudioProjects\Quizma\app\src\main\AndroidManifest.xml:29:13-56
	android:name
		ADDED from C:\Users\Beep Montalban\AndroidStudioProjects\Quizma\app\src\main\AndroidManifest.xml:27:13-44
activity#com.example.ismael.quizma.AcercaDeActivity
ADDED from C:\Users\Beep Montalban\AndroidStudioProjects\Quizma\app\src\main\AndroidManifest.xml:30:9-33:59
	android:label
		ADDED from C:\Users\Beep Montalban\AndroidStudioProjects\Quizma\app\src\main\AndroidManifest.xml:32:13-61
	android:theme
		ADDED from C:\Users\Beep Montalban\AndroidStudioProjects\Quizma\app\src\main\AndroidManifest.xml:33:13-56
	android:name
		ADDED from C:\Users\Beep Montalban\AndroidStudioProjects\Quizma\app\src\main\AndroidManifest.xml:31:13-45
activity#com.example.ismael.quizma.ListadoPreguntasActivity
ADDED from C:\Users\Beep Montalban\AndroidStudioProjects\Quizma\app\src\main\AndroidManifest.xml:34:9-37:59
	android:label
		ADDED from C:\Users\Beep Montalban\AndroidStudioProjects\Quizma\app\src\main\AndroidManifest.xml:36:13-69
	android:theme
		ADDED from C:\Users\Beep Montalban\AndroidStudioProjects\Quizma\app\src\main\AndroidManifest.xml:37:13-56
	android:name
		ADDED from C:\Users\Beep Montalban\AndroidStudioProjects\Quizma\app\src\main\AndroidManifest.xml:35:13-53
activity#com.example.ismael.quizma.NuevaPreguntaActivity
ADDED from C:\Users\Beep Montalban\AndroidStudioProjects\Quizma\app\src\main\AndroidManifest.xml:38:9-41:68
	android:label
		ADDED from C:\Users\Beep Montalban\AndroidStudioProjects\Quizma\app\src\main\AndroidManifest.xml:40:13-66
	android:theme
		ADDED from C:\Users\Beep Montalban\AndroidStudioProjects\Quizma\app\src\main\AndroidManifest.xml:41:13-56
	android:name
		ADDED from C:\Users\Beep Montalban\AndroidStudioProjects\Quizma\app\src\main\AndroidManifest.xml:39:13-50
uses-sdk
INJECTED from C:\Users\Beep Montalban\AndroidStudioProjects\Quizma\app\src\main\AndroidManifest.xml reason: use-sdk injection requested
INJECTED from C:\Users\Beep Montalban\AndroidStudioProjects\Quizma\app\src\main\AndroidManifest.xml
INJECTED from C:\Users\Beep Montalban\AndroidStudioProjects\Quizma\app\src\main\AndroidManifest.xml
MERGED from [com.android.support:design:28.0.0] C:\Users\Beep Montalban\.gradle\caches\transforms-1\files-1.1\design-28.0.0.aar\abda9a137db9062261ff731dc018e3d3\AndroidManifest.xml:20:5-44
MERGED from [com.android.support:design:28.0.0] C:\Users\Beep Montalban\.gradle\caches\transforms-1\files-1.1\design-28.0.0.aar\abda9a137db9062261ff731dc018e3d3\AndroidManifest.xml:20:5-44
MERGED from [com.android.support:appcompat-v7:28.0.0] C:\Users\Beep Montalban\.gradle\caches\transforms-1\files-1.1\appcompat-v7-28.0.0.aar\f48ca51120921539497697dddb99a025\AndroidManifest.xml:20:5-44
MERGED from [com.android.support:appcompat-v7:28.0.0] C:\Users\Beep Montalban\.gradle\caches\transforms-1\files-1.1\appcompat-v7-28.0.0.aar\f48ca51120921539497697dddb99a025\AndroidManifest.xml:20:5-44
MERGED from [com.android.support.constraint:constraint-layout:1.1.3] C:\Users\Beep Montalban\.gradle\caches\transforms-1\files-1.1\constraint-layout-1.1.3.aar\677d239f3ad4191fe7cb20bb12642c95\AndroidManifest.xml:5:5-7:41
MERGED from [com.android.support.constraint:constraint-layout:1.1.3] C:\Users\Beep Montalban\.gradle\caches\transforms-1\files-1.1\constraint-layout-1.1.3.aar\677d239f3ad4191fe7cb20bb12642c95\AndroidManifest.xml:5:5-7:41
MERGED from [com.android.support:recyclerview-v7:28.0.0] C:\Users\Beep Montalban\.gradle\caches\transforms-1\files-1.1\recyclerview-v7-28.0.0.aar\abff18dde50adc13ecd89ebb23e808c6\AndroidManifest.xml:20:5-44
MERGED from [com.android.support:recyclerview-v7:28.0.0] C:\Users\Beep Montalban\.gradle\caches\transforms-1\files-1.1\recyclerview-v7-28.0.0.aar\abff18dde50adc13ecd89ebb23e808c6\AndroidManifest.xml:20:5-44
MERGED from [com.android.support:support-fragment:28.0.0] C:\Users\Beep Montalban\.gradle\caches\transforms-1\files-1.1\support-fragment-28.0.0.aar\c8eedad4481017c54206fe5a0c9a60e4\AndroidManifest.xml:20:5-44
MERGED from [com.android.support:support-fragment:28.0.0] C:\Users\Beep Montalban\.gradle\caches\transforms-1\files-1.1\support-fragment-28.0.0.aar\c8eedad4481017c54206fe5a0c9a60e4\AndroidManifest.xml:20:5-44
MERGED from [com.android.support:animated-vector-drawable:28.0.0] C:\Users\Beep Montalban\.gradle\caches\transforms-1\files-1.1\animated-vector-drawable-28.0.0.aar\74b043f4b81017561883adf632710edf\AndroidManifest.xml:20:5-44
MERGED from [com.android.support:animated-vector-drawable:28.0.0] C:\Users\Beep Montalban\.gradle\caches\transforms-1\files-1.1\animated-vector-drawable-28.0.0.aar\74b043f4b81017561883adf632710edf\AndroidManifest.xml:20:5-44
MERGED from [com.android.support:support-core-ui:28.0.0] C:\Users\Beep Montalban\.gradle\caches\transforms-1\files-1.1\support-core-ui-28.0.0.aar\3e11ea3365aa283a94a0c955bbd0f477\AndroidManifest.xml:20:5-44
MERGED from [com.android.support:support-core-ui:28.0.0] C:\Users\Beep Montalban\.gradle\caches\transforms-1\files-1.1\support-core-ui-28.0.0.aar\3e11ea3365aa283a94a0c955bbd0f477\AndroidManifest.xml:20:5-44
MERGED from [com.android.support:support-core-utils:28.0.0] C:\Users\Beep Montalban\.gradle\caches\transforms-1\files-1.1\support-core-utils-28.0.0.aar\aa9e301bc417f88e04c26f623abc26c2\AndroidManifest.xml:20:5-44
MERGED from [com.android.support:support-core-utils:28.0.0] C:\Users\Beep Montalban\.gradle\caches\transforms-1\files-1.1\support-core-utils-28.0.0.aar\aa9e301bc417f88e04c26f623abc26c2\AndroidManifest.xml:20:5-44
MERGED from [com.android.support:support-vector-drawable:28.0.0] C:\Users\Beep Montalban\.gradle\caches\transforms-1\files-1.1\support-vector-drawable-28.0.0.aar\ce841b294bd3ff8ef150347031a51c9b\AndroidManifest.xml:20:5-44
MERGED from [com.android.support:support-vector-drawable:28.0.0] C:\Users\Beep Montalban\.gradle\caches\transforms-1\files-1.1\support-vector-drawable-28.0.0.aar\ce841b294bd3ff8ef150347031a51c9b\AndroidManifest.xml:20:5-44
MERGED from [com.android.support:transition:28.0.0] C:\Users\Beep Montalban\.gradle\caches\transforms-1\files-1.1\transition-28.0.0.aar\4d2446096fc802a97acbbcb4afb0480b\AndroidManifest.xml:20:5-44
MERGED from [com.android.support:transition:28.0.0] C:\Users\Beep Montalban\.gradle\caches\transforms-1\files-1.1\transition-28.0.0.aar\4d2446096fc802a97acbbcb4afb0480b\AndroidManifest.xml:20:5-44
MERGED from [com.android.support:loader:28.0.0] C:\Users\Beep Montalban\.gradle\caches\transforms-1\files-1.1\loader-28.0.0.aar\b5f1311aa5f90a1a146ca7ffdad1a7a6\AndroidManifest.xml:20:5-44
MERGED from [com.android.support:loader:28.0.0] C:\Users\Beep Montalban\.gradle\caches\transforms-1\files-1.1\loader-28.0.0.aar\b5f1311aa5f90a1a146ca7ffdad1a7a6\AndroidManifest.xml:20:5-44
MERGED from [com.android.support:viewpager:28.0.0] C:\Users\Beep Montalban\.gradle\caches\transforms-1\files-1.1\viewpager-28.0.0.aar\613c3e08b86a93840de4395b800e3911\AndroidManifest.xml:20:5-44
MERGED from [com.android.support:viewpager:28.0.0] C:\Users\Beep Montalban\.gradle\caches\transforms-1\files-1.1\viewpager-28.0.0.aar\613c3e08b86a93840de4395b800e3911\AndroidManifest.xml:20:5-44
MERGED from [com.android.support:coordinatorlayout:28.0.0] C:\Users\Beep Montalban\.gradle\caches\transforms-1\files-1.1\coordinatorlayout-28.0.0.aar\025e015f81e5e42868e23ef087bbf949\AndroidManifest.xml:20:5-44
MERGED from [com.android.support:coordinatorlayout:28.0.0] C:\Users\Beep Montalban\.gradle\caches\transforms-1\files-1.1\coordinatorlayout-28.0.0.aar\025e015f81e5e42868e23ef087bbf949\AndroidManifest.xml:20:5-44
MERGED from [com.android.support:drawerlayout:28.0.0] C:\Users\Beep Montalban\.gradle\caches\transforms-1\files-1.1\drawerlayout-28.0.0.aar\7515c3e5373efbd50a464336aaececc3\AndroidManifest.xml:20:5-44
MERGED from [com.android.support:drawerlayout:28.0.0] C:\Users\Beep Montalban\.gradle\caches\transforms-1\files-1.1\drawerlayout-28.0.0.aar\7515c3e5373efbd50a464336aaececc3\AndroidManifest.xml:20:5-44
MERGED from [com.android.support:slidingpanelayout:28.0.0] C:\Users\Beep Montalban\.gradle\caches\transforms-1\files-1.1\slidingpanelayout-28.0.0.aar\90639f9662cb7b3a2e54cab5269713a5\AndroidManifest.xml:20:5-44
MERGED from [com.android.support:slidingpanelayout:28.0.0] C:\Users\Beep Montalban\.gradle\caches\transforms-1\files-1.1\slidingpanelayout-28.0.0.aar\90639f9662cb7b3a2e54cab5269713a5\AndroidManifest.xml:20:5-44
MERGED from [com.android.support:customview:28.0.0] C:\Users\Beep Montalban\.gradle\caches\transforms-1\files-1.1\customview-28.0.0.aar\352c3d30de29fc6ef4cc6cc388332ab2\AndroidManifest.xml:20:5-44
MERGED from [com.android.support:customview:28.0.0] C:\Users\Beep Montalban\.gradle\caches\transforms-1\files-1.1\customview-28.0.0.aar\352c3d30de29fc6ef4cc6cc388332ab2\AndroidManifest.xml:20:5-44
MERGED from [com.android.support:swiperefreshlayout:28.0.0] C:\Users\Beep Montalban\.gradle\caches\transforms-1\files-1.1\swiperefreshlayout-28.0.0.aar\a253d5996ea136d58449592055ee04e9\AndroidManifest.xml:20:5-44
MERGED from [com.android.support:swiperefreshlayout:28.0.0] C:\Users\Beep Montalban\.gradle\caches\transforms-1\files-1.1\swiperefreshlayout-28.0.0.aar\a253d5996ea136d58449592055ee04e9\AndroidManifest.xml:20:5-44
MERGED from [com.android.support:asynclayoutinflater:28.0.0] C:\Users\Beep Montalban\.gradle\caches\transforms-1\files-1.1\asynclayoutinflater-28.0.0.aar\3df21c603a81a85f20798e482881dd3a\AndroidManifest.xml:20:5-44
MERGED from [com.android.support:asynclayoutinflater:28.0.0] C:\Users\Beep Montalban\.gradle\caches\transforms-1\files-1.1\asynclayoutinflater-28.0.0.aar\3df21c603a81a85f20798e482881dd3a\AndroidManifest.xml:20:5-44
MERGED from [com.android.support:support-compat:28.0.0] C:\Users\Beep Montalban\.gradle\caches\transforms-1\files-1.1\support-compat-28.0.0.aar\5276ccc4e1bc65bf275107333f64b811\AndroidManifest.xml:20:5-44
MERGED from [com.android.support:support-compat:28.0.0] C:\Users\Beep Montalban\.gradle\caches\transforms-1\files-1.1\support-compat-28.0.0.aar\5276ccc4e1bc65bf275107333f64b811\AndroidManifest.xml:20:5-44
MERGED from [com.android.support:versionedparcelable:28.0.0] C:\Users\Beep Montalban\.gradle\caches\transforms-1\files-1.1\versionedparcelable-28.0.0.aar\e29b2226c064cea130feaffa1122981c\AndroidManifest.xml:20:5-44
MERGED from [com.android.support:versionedparcelable:28.0.0] C:\Users\Beep Montalban\.gradle\caches\transforms-1\files-1.1\versionedparcelable-28.0.0.aar\e29b2226c064cea130feaffa1122981c\AndroidManifest.xml:20:5-44
MERGED from [com.android.support:cursoradapter:28.0.0] C:\Users\Beep Montalban\.gradle\caches\transforms-1\files-1.1\cursoradapter-28.0.0.aar\fc313fd12de420bfa210e45e544199a5\AndroidManifest.xml:20:5-44
MERGED from [com.android.support:cursoradapter:28.0.0] C:\Users\Beep Montalban\.gradle\caches\transforms-1\files-1.1\cursoradapter-28.0.0.aar\fc313fd12de420bfa210e45e544199a5\AndroidManifest.xml:20:5-44
MERGED from [com.android.support:cardview-v7:28.0.0] C:\Users\Beep Montalban\.gradle\caches\transforms-1\files-1.1\cardview-v7-28.0.0.aar\d8e9677a8749133118b37e3535c95d2c\AndroidManifest.xml:20:5-44
MERGED from [com.android.support:cardview-v7:28.0.0] C:\Users\Beep Montalban\.gradle\caches\transforms-1\files-1.1\cardview-v7-28.0.0.aar\d8e9677a8749133118b37e3535c95d2c\AndroidManifest.xml:20:5-44
MERGED from [android.arch.lifecycle:runtime:1.1.1] C:\Users\Beep Montalban\.gradle\caches\transforms-1\files-1.1\runtime-1.1.1.aar\d21c48cc76e2f01bde83a3896f0ec71b\AndroidManifest.xml:20:5-44
MERGED from [android.arch.lifecycle:runtime:1.1.1] C:\Users\Beep Montalban\.gradle\caches\transforms-1\files-1.1\runtime-1.1.1.aar\d21c48cc76e2f01bde83a3896f0ec71b\AndroidManifest.xml:20:5-44
MERGED from [com.android.support:documentfile:28.0.0] C:\Users\Beep Montalban\.gradle\caches\transforms-1\files-1.1\documentfile-28.0.0.aar\502d896acdb47b6538e18298fae86a19\AndroidManifest.xml:20:5-44
MERGED from [com.android.support:documentfile:28.0.0] C:\Users\Beep Montalban\.gradle\caches\transforms-1\files-1.1\documentfile-28.0.0.aar\502d896acdb47b6538e18298fae86a19\AndroidManifest.xml:20:5-44
MERGED from [com.android.support:localbroadcastmanager:28.0.0] C:\Users\Beep Montalban\.gradle\caches\transforms-1\files-1.1\localbroadcastmanager-28.0.0.aar\531fe6f0921640606ebde6346723bc7a\AndroidManifest.xml:20:5-44
MERGED from [com.android.support:localbroadcastmanager:28.0.0] C:\Users\Beep Montalban\.gradle\caches\transforms-1\files-1.1\localbroadcastmanager-28.0.0.aar\531fe6f0921640606ebde6346723bc7a\AndroidManifest.xml:20:5-44
MERGED from [com.android.support:print:28.0.0] C:\Users\Beep Montalban\.gradle\caches\transforms-1\files-1.1\print-28.0.0.aar\8647150b9068d103da97d0955dd7f07e\AndroidManifest.xml:20:5-44
MERGED from [com.android.support:print:28.0.0] C:\Users\Beep Montalban\.gradle\caches\transforms-1\files-1.1\print-28.0.0.aar\8647150b9068d103da97d0955dd7f07e\AndroidManifest.xml:20:5-44
MERGED from [android.arch.lifecycle:viewmodel:1.1.1] C:\Users\Beep Montalban\.gradle\caches\transforms-1\files-1.1\viewmodel-1.1.1.aar\e182609ffb590cf1154fd7099d628f1b\AndroidManifest.xml:20:5-44
MERGED from [android.arch.lifecycle:viewmodel:1.1.1] C:\Users\Beep Montalban\.gradle\caches\transforms-1\files-1.1\viewmodel-1.1.1.aar\e182609ffb590cf1154fd7099d628f1b\AndroidManifest.xml:20:5-44
MERGED from [com.android.support:interpolator:28.0.0] C:\Users\Beep Montalban\.gradle\caches\transforms-1\files-1.1\interpolator-28.0.0.aar\e8e0222386999e7650bf9abb0b67c115\AndroidManifest.xml:20:5-44
MERGED from [com.android.support:interpolator:28.0.0] C:\Users\Beep Montalban\.gradle\caches\transforms-1\files-1.1\interpolator-28.0.0.aar\e8e0222386999e7650bf9abb0b67c115\AndroidManifest.xml:20:5-44
MERGED from [android.arch.lifecycle:livedata:1.1.1] C:\Users\Beep Montalban\.gradle\caches\transforms-1\files-1.1\livedata-1.1.1.aar\f3e72de4aa60074c50f33a2088839c8c\AndroidManifest.xml:20:5-44
MERGED from [android.arch.lifecycle:livedata:1.1.1] C:\Users\Beep Montalban\.gradle\caches\transforms-1\files-1.1\livedata-1.1.1.aar\f3e72de4aa60074c50f33a2088839c8c\AndroidManifest.xml:20:5-44
MERGED from [android.arch.lifecycle:livedata-core:1.1.1] C:\Users\Beep Montalban\.gradle\caches\transforms-1\files-1.1\livedata-core-1.1.1.aar\52939d05af574c36adb0284008ea7a5b\AndroidManifest.xml:20:5-44
MERGED from [android.arch.lifecycle:livedata-core:1.1.1] C:\Users\Beep Montalban\.gradle\caches\transforms-1\files-1.1\livedata-core-1.1.1.aar\52939d05af574c36adb0284008ea7a5b\AndroidManifest.xml:20:5-44
MERGED from [android.arch.core:runtime:1.1.1] C:\Users\Beep Montalban\.gradle\caches\transforms-1\files-1.1\runtime-1.1.1.aar\803bbe00005ed1338030802093eecc00\AndroidManifest.xml:20:5-44
MERGED from [android.arch.core:runtime:1.1.1] C:\Users\Beep Montalban\.gradle\caches\transforms-1\files-1.1\runtime-1.1.1.aar\803bbe00005ed1338030802093eecc00\AndroidManifest.xml:20:5-44
INJECTED from C:\Users\Beep Montalban\AndroidStudioProjects\Quizma\app\src\main\AndroidManifest.xml
INJECTED from C:\Users\Beep Montalban\AndroidStudioProjects\Quizma\app\src\main\AndroidManifest.xml
	android:targetSdkVersion
		INJECTED from C:\Users\Beep Montalban\AndroidStudioProjects\Quizma\app\src\main\AndroidManifest.xml
		ADDED from C:\Users\Beep Montalban\AndroidStudioProjects\Quizma\app\src\main\AndroidManifest.xml
		INJECTED from C:\Users\Beep Montalban\AndroidStudioProjects\Quizma\app\src\main\AndroidManifest.xml
	android:minSdkVersion
		INJECTED from C:\Users\Beep Montalban\AndroidStudioProjects\Quizma\app\src\main\AndroidManifest.xml
		ADDED from C:\Users\Beep Montalban\AndroidStudioProjects\Quizma\app\src\main\AndroidManifest.xml
		INJECTED from C:\Users\Beep Montalban\AndroidStudioProjects\Quizma\app\src\main\AndroidManifest.xml
